<?xml version="1.0" encoding="UTF-8" standalone="no"?>
<svg
   xmlns:dc="http://purl.org/dc/elements/1.1/"
   xmlns:cc="http://creativecommons.org/ns#"
   xmlns:rdf="http://www.w3.org/1999/02/22-rdf-syntax-ns#"
   xmlns:svg="http://www.w3.org/2000/svg"
   xmlns="http://www.w3.org/2000/svg"
   xmlns:sodipodi="http://sodipodi.sourceforge.net/DTD/sodipodi-0.dtd"
   xmlns:inkscape="http://www.inkscape.org/namespaces/inkscape"
   width="128mm"
   height="32mm"
   viewBox="0 0 128 32"
   version="1.1"
   id="svg8"
   sodipodi:docname="release.svg"
   inkscape:version="1.0 (1.0+r73+1)">
  <defs
     id="defs2" />
  <sodipodi:namedview
     id="base"
     pagecolor="#ffffff"
     bordercolor="#666666"
     borderopacity="1.0"
     inkscape:pageopacity="0.0"
     inkscape:pageshadow="2"
     inkscape:zoom="2.4560226"
     inkscape:cx="224.95869"
     inkscape:cy="0.73125941"
     inkscape:document-units="mm"
     inkscape:current-layer="layer1"
     showgrid="false"
     inkscape:snap-page="true"
     inkscape:window-width="1920"
     inkscape:window-height="1016"
     inkscape:window-x="0"
     inkscape:window-y="27"
     inkscape:window-maximized="1"
     inkscape:document-rotation="0" />
  <metadata
     id="metadata5">
    <rdf:RDF>
      <cc:Work
         rdf:about="">
        <dc:format>image/svg+xml</dc:format>
        <dc:type
           rdf:resource="http://purl.org/dc/dcmitype/StillImage" />
        <dc:title></dc:title>
      </cc:Work>
    </rdf:RDF>
  </metadata>
  <g
     inkscape:label="Layer 1"
     inkscape:groupmode="layer"
     id="layer1"
     transform="translate(0,-233)">
    <rect
       style="fill:#03a9f4;fill-opacity:1;stroke-width:0.264583"
       id="rect3713"
       width="128"
       height="32"
       x="0"
       y="233" />
    <path
       style="fill:#ffffff;fill-opacity:1;fill-rule:nonzero;stroke:none;stroke-width:0.264583"
       id="path2569"
       d="m 26.377397,239.59774 c -0.0118,-0.2946 -0.05049,-0.58677 -0.113204,-0.87456 -1.103339,-1.3612 -0.623052,-1.38896 -2.767172,0.0246 -0.115094,0.0758 -0.05118,0.27105 -0.06736,0.40791 -0.07838,0.66328 -0.07879,1.3436 -0.103031,2.0095 -0.0497,2.55905 -0.04825,5.11834 -0.104621,7.67739 -0.04012,1.8449 -0.101275,3.68952 -0.112271,5.53494 1.96e-4,0.0747 4.89e-4,0.14945 7.18e-4,0.22417 0.007,1.9956 2.829197,1.98571 2.822205,-0.01 v 0 c -1.92e-4,-0.0658 -4.81e-4,-0.13178 -7.49e-4,-0.1977 0.01059,-1.83024 0.07238,-3.6597 0.11164,-5.48944 0.05595,-2.54571 0.05594,-5.09161 0.103454,-7.63733 0.01014,-0.28152 0.01858,-0.56312 0.03042,-0.84457 0.01274,-0.30305 0.04469,-0.60525 0.05158,-0.90849 1.69e-4,-0.005 -0.0098,-0.007 -0.0144,-0.005 -2.334177,0.94372 -1.521994,1.36602 -2.69157,-0.1149 -0.0028,-0.0175 -0.01318,-0.0695 -0.0085,-0.0524 0.03312,0.11945 0.02814,0.24871 0.04299,0.37054 0.08121,1.99397 2.90109,1.87913 2.819886,-0.11483 z" />
    <path
       style="fill:#ffffff;fill-opacity:1;fill-rule:nonzero;stroke:none;stroke-width:0.264583"
       id="path2571"
       d="m 26.087068,239.90552 c 0.0059,0.002 0.01135,0.008 0.01724,0.006 0.457595,-0.14111 0.03791,-0.055 0.660709,-0.20574 0.378781,-0.0917 0.708858,-0.15794 1.101527,-0.15937 0.186427,-6.7e-4 0.37172,0.0289 0.557587,0.0435 0.686118,0.13964 1.290086,0.46491 1.728716,1.01945 0.249071,0.31491 0.293403,0.47707 0.455811,0.84184 0.219084,0.72254 0.311313,1.49409 0.148096,2.23993 -0.104278,0.4765 -0.195449,0.58611 -0.415293,1.0143 -0.60987,0.87257 -1.519299,1.39784 -2.506568,1.74585 -0.1992,0.0702 -0.403502,0.12503 -0.60526,0.18754 -0.482956,0.12215 -0.96395,0.25005 -1.441725,0.39093 -1.913242,0.56743 -1.110774,3.27316 0.802468,2.70573 v 0 c 0.494716,-0.1478 0.995489,-0.27215 1.493913,-0.40695 0.69213,-0.22396 1.042916,-0.31229 1.712716,-0.63938 0.945736,-0.46182 1.816707,-1.07946 2.488411,-1.89828 0.227877,-0.27819 0.407954,-0.59234 0.611932,-0.8885 0.373615,-0.84014 0.505762,-0.99805 0.665523,-1.90985 0.164373,-0.93817 0.111387,-1.93712 -0.120309,-2.85918 -0.07955,-0.31656 -0.202042,-0.62072 -0.303066,-0.93109 -0.384786,-0.74148 -0.455952,-0.99419 -1.026824,-1.62366 -0.683444,-0.75358 -1.564052,-1.30538 -2.537986,-1.59738 -0.329525,-0.0988 -0.673642,-0.14001 -1.01047,-0.21001 -0.326089,-0.011 -0.652189,-0.0442 -0.978274,-0.0329 -1.004825,0.0348 -2.068313,0.32165 -2.972993,0.76049 -1.701735,1.04238 -0.227592,3.44899 1.474152,2.40662 z" />
    <path
       style="fill:#ffffff;fill-opacity:1;fill-rule:nonzero;stroke:none;stroke-width:0.264583"
       id="path2573"
       d="m 25.401832,248.64011 c 0.891608,0.85173 1.628896,1.85565 2.393196,2.81948 1.049235,1.34647 2.130588,2.66686 3.256081,3.95019 1.316134,1.50008 3.43758,-0.36124 2.121448,-1.86129 v 0 c -1.095212,-1.24775 -2.14555,-2.53315 -3.166284,-3.84256 -0.885007,-1.11582 -1.740497,-2.27886 -2.80127,-3.23689 -1.535174,-1.27504 -3.338346,0.89603 -1.803132,2.17109 z" />
    <path
       style="fill:#ffffff;fill-opacity:1;fill-rule:nonzero;stroke:none;stroke-width:0.264583"
       id="path2577"
       d="m 38.585775,249.04166 c 0.978599,0.15507 1.940227,0.39392 2.900614,0.63389 1.085744,0.28063 2.182634,0.51317 3.286692,0.70835 0.512885,0.088 1.028538,0.15857 1.545515,0.21739 0.40351,0.048 0.749168,0.0345 1.139848,-0.23784 0.23618,-0.16467 0.376542,-0.4383 0.530803,-0.68149 0.05477,-0.0862 0.05949,-0.19542 0.08928,-0.2931 0.212278,-0.88924 0.26084,-1.80253 0.271869,-2.71305 -0.03565,-1.02929 -0.13246,-2.10155 -0.629163,-3.02662 -0.101775,-0.18953 -0.23315,-0.36161 -0.349727,-0.54243 -0.168105,-0.17021 -0.318412,-0.36007 -0.50433,-0.51063 -0.756576,-0.61272 -1.723197,-0.80812 -2.672829,-0.82801 -0.210523,-0.004 -0.42099,0.011 -0.631494,0.0165 -0.883301,0.0535 -1.725576,0.29815 -2.507306,0.71055 -0.501443,0.26452 -0.711355,0.43088 -1.174075,0.75219 -0.763246,0.55389 -1.414656,1.23716 -1.906687,2.04345 -0.358973,0.58833 -0.413796,0.78699 -0.682453,1.42589 -0.425614,1.20921 -0.65632,2.48748 -0.647093,3.7713 0.0018,0.2486 0.02269,0.4967 0.03404,0.74503 0.135812,1.25922 0.476303,2.54777 1.354939,3.50743 0.211322,0.23081 0.463971,0.42007 0.695959,0.63012 0.289779,0.16921 0.564802,0.36668 0.869331,0.50762 0.929864,0.43036 1.959867,0.58794 2.97558,0.60542 0.617139,0.0106 1.114296,-0.0472 1.721448,-0.10033 1.987604,-0.17857 1.735449,-2.98925 -0.252175,-2.81094 v 0 c -1.175491,0.1084 -2.401822,0.21139 -3.486938,-0.35265 -0.277125,-0.19902 -0.332017,-0.20439 -0.534058,-0.48506 -0.343757,-0.47754 -0.446906,-1.07855 -0.525591,-1.6469 -0.01042,-0.17449 -0.02814,-0.3487 -0.03133,-0.52347 -0.01699,-0.94191 0.141794,-1.88256 0.436556,-2.77549 0.06515,-0.1647 0.122808,-0.33255 0.195566,-0.49402 0.314434,-0.69781 0.781403,-1.29014 1.404542,-1.73756 0.695901,-0.49611 1.281259,-0.8875 2.157508,-0.95206 0.458975,-0.0223 0.947789,-0.0501 1.38843,0.10501 0.03723,0.042 0.08053,0.0794 0.111768,0.12602 0.334331,0.49942 0.322706,1.23893 0.367538,1.81235 -0.0045,0.68306 -0.03477,1.36763 -0.182977,2.03707 0.261358,-0.59537 0.762769,-0.90195 1.412209,-0.87583 0.04046,10e-4 -0.194978,-0.017 -0.120764,-0.013 -0.459425,-0.0521 -0.917687,-0.11466 -1.373516,-0.19246 -1.039199,-0.18306 -2.071401,-0.40284 -3.093269,-0.66715 -1.012263,-0.25277 -2.026108,-0.50354 -3.057264,-0.66831 -1.960474,-0.37283 -2.487742,2.39969 -0.527266,2.77253 z" />
    <path
       style="fill:#ffffff;fill-opacity:1;fill-rule:nonzero;stroke:none;stroke-width:0.264583"
       id="path2579"
       d="m 50.328929,236.95936 c -0.382289,1.31053 -0.453039,2.67914 -0.545185,4.03289 -0.127476,2.86889 -0.494232,5.71716 -0.805468,8.56947 -0.100914,1.16411 -0.208903,2.34526 -0.04592,3.51051 0.0893,0.63839 0.249439,1.27859 0.602977,1.83 0.179515,0.28 0.434502,0.50368 0.651748,0.75551 0.883455,0.49449 0.935138,0.65582 1.966738,0.71477 0.755648,0.0432 1.290747,-0.12394 2.013843,-0.28248 1.944288,-0.44966 1.308379,-3.1993 -0.635909,-2.74964 v 0 c -0.204279,0.0511 -0.407298,0.1076 -0.61283,0.15339 -0.139918,0.0311 -0.281888,0.0519 -0.422907,0.0774 -0.07117,0.0125 -0.144887,0.0153 -0.213491,0.0378 -0.03483,0.0112 -0.06007,0.042 -0.0901,0.0631 -0.04595,-0.014 -0.102807,-0.009 -0.137923,-0.0419 -0.211192,-0.19717 -0.267853,-0.52557 -0.30925,-0.78676 -0.156239,-0.98576 -0.03896,-1.98993 0.03858,-2.97547 0.315216,-2.8908 0.685843,-5.77761 0.815676,-8.68513 0.07825,-1.16578 0.123815,-2.3478 0.45124,-3.47731 0.527476,-1.92464 -2.194373,-2.6706 -2.72185,-0.74596 z" />
    <path
       style="fill:#ffffff;fill-opacity:1;fill-rule:nonzero;stroke:none;stroke-width:0.264583"
       id="path2591"
       d="m 57.124476,249.12112 c 0.973862,0.0501 1.950398,0.0161 2.924319,-0.0168 1.272969,-0.0699 2.543743,-0.1647 3.818294,-0.20214 0.687496,-0.0158 1.375773,-0.0304 2.06003,-0.10305 0.575679,-0.0713 1.0846,-0.34485 1.420219,-0.8315 0.251824,-0.36509 0.277376,-0.60144 0.389483,-1.01861 0.165046,-1.06837 0.11546,-2.17978 -0.237196,-3.20877 -0.07617,-0.22225 -0.180387,-0.43387 -0.27058,-0.65081 -0.12362,-0.20538 -0.230118,-0.42209 -0.370859,-0.61613 -0.469334,-0.64704 -1.103608,-1.12055 -1.877881,-1.34118 -0.645369,-0.1839 -0.940746,-0.13056 -1.59536,-0.11786 -1.148728,0.12974 -2.273798,0.45777 -3.301471,0.99076 -0.196623,0.10202 -0.385365,0.21846 -0.578049,0.32769 -0.899449,0.57925 -1.772278,1.23571 -2.454532,2.0687 -0.139725,0.17041 -0.262734,0.35388 -0.394101,0.53082 -0.613356,0.96709 -1.082491,2.03115 -1.275563,3.16534 -0.03938,0.23135 -0.05645,0.46594 -0.08468,0.69891 -0.04958,1.18872 0.02383,2.41906 0.4658,3.53851 0.09484,0.24021 0.219772,0.46741 0.329658,0.70112 0.146942,0.22501 0.279359,0.46019 0.44082,0.67502 0.664926,0.88468 1.558286,1.61698 2.572224,2.06538 0.265015,0.11719 0.544959,0.19721 0.81744,0.29582 0.938757,0.24503 1.895454,0.25282 2.843835,0.0539 0.79547,-0.16686 1.547056,-0.49276 2.301267,-0.78486 1.860879,-0.72082 0.841475,-3.3525 -1.019404,-2.63168 v 0 c -1.054317,0.40846 -2.047089,0.90314 -3.209286,0.69332 -0.149013,-0.0461 -0.301904,-0.0811 -0.447027,-0.1383 -0.732526,-0.28849 -1.328954,-0.82724 -1.766598,-1.4726 -0.06132,-0.11493 -0.1318,-0.22543 -0.18394,-0.3448 -0.318754,-0.72977 -0.345604,-1.5537 -0.340155,-2.33625 0.03557,-0.36387 0.03616,-0.50789 0.124522,-0.86338 0.145725,-0.58629 0.412269,-1.13641 0.714142,-1.65637 0.07366,-0.10544 0.142246,-0.21469 0.221449,-0.31606 0.475508,-0.60886 1.116583,-1.06796 1.75088,-1.49588 0.129607,-0.076 0.256324,-0.15717 0.388737,-0.22818 0.686314,-0.36807 1.43962,-0.59896 2.207554,-0.71741 0.163214,-0.0169 0.631527,-0.10388 0.797252,-1.3e-4 0.155681,0.0975 0.230797,0.23668 0.335722,0.38228 0.0491,0.10304 0.105585,0.20287 0.147323,0.30911 0.222436,0.56623 0.248911,1.19019 0.198099,1.78955 5.82e-4,0.0262 -0.02392,0.0834 0.0019,0.0786 0.04128,-0.008 0.0524,-0.0661 0.08312,-0.0948 0.162809,-0.15303 0.339624,-0.28648 0.569383,-0.31365 0.007,-9.3e-4 -0.01338,0.006 -0.01989,0.009 -0.609821,0.0693 -1.225065,0.0674 -1.837687,0.0876 -1.278583,0.0381 -2.553639,0.12921 -3.830473,0.20254 -0.86752,0.0297 -1.737009,0.0598 -2.604762,0.0241 -1.989321,-0.15831 -2.213202,2.65503 -0.223875,2.81333 z" />
    <path
       style="fill:#ffffff;fill-opacity:1;fill-rule:nonzero;stroke:none;stroke-width:0.264583"
       id="path2593"
       d="m 78.496835,241.75648 c -0.708899,-0.42866 -1.536681,-0.55799 -2.355613,-0.4779 -0.235462,0.0231 -0.467124,0.0753 -0.700683,0.11295 -1.224229,0.30894 -2.299181,0.95769 -3.202542,1.83461 -0.651509,0.63251 -0.860282,0.96425 -1.40836,1.68599 -0.847141,1.25277 -1.541206,2.61738 -1.901565,4.09372 -0.238448,0.9769 -0.206974,1.17157 -0.267497,2.16001 0.03548,0.35438 0.03548,0.71414 0.106478,1.06314 0.233109,1.14608 0.805376,2.07892 1.861519,2.64402 0.836316,0.44747 1.334731,0.40386 2.242574,0.48752 0.383887,-0.0374 0.771755,-0.0455 1.151668,-0.11217 1.141102,-0.2001 2.240268,-0.67031 3.153328,-1.38721 0.834939,-0.65554 0.981487,-0.95525 1.622521,-1.79019 0.848561,-1.353 1.389561,-2.86824 1.68815,-4.43356 0.175795,-0.92159 0.183727,-1.29722 0.259306,-2.21192 0.04897,-1.0567 0.03412,-2.12213 -0.146234,-3.16661 -0.107508,-0.44848 -0.254345,-1.20176 -0.907155,-1.15721 -0.745789,0.0509 -1.329228,0.69812 -1.927349,1.14649 -0.08723,0.0654 -0.02651,0.21653 -0.03582,0.32518 -0.0237,0.27595 -0.0339,0.59657 -0.04569,0.86891 -0.0633,1.59782 -7.77e-4,3.19499 0.120081,4.78824 0.132439,1.16731 0.212822,2.40214 0.799119,3.45309 0.445726,0.79899 0.634818,0.86216 1.314319,1.46214 1.006676,0.70778 2.076977,0.90569 3.234513,1.18047 1.942018,0.45941 2.59174,-2.28698 0.649693,-2.7464 v 0 c -0.710796,-0.1676 -1.446384,-0.27722 -2.100551,-0.6212 -0.235714,-0.15095 -0.36338,-0.1992 -0.52637,-0.4377 -0.211814,-0.30996 -0.276484,-0.60632 -0.352439,-0.97674 -0.109541,-0.53425 -0.144931,-0.98456 -0.204236,-1.52845 -0.113853,-1.48187 -0.17212,-2.96738 -0.114432,-4.45364 0.0061,-0.14532 0.01101,-0.2907 0.01821,-0.43598 0.0048,-0.0965 0.01245,-0.19289 0.01772,-0.2894 0.0014,-0.0274 0.02729,-0.0942 0.0024,-0.0826 -0.456786,0.2139 -2.532432,2.07485 -2.720816,-0.002 0.150272,0.80545 0.133229,1.63396 0.111809,2.44887 -0.0553,0.72142 -0.0647,1.08217 -0.196265,1.80319 -0.215876,1.18313 -0.598391,2.33918 -1.201944,3.38206 -0.362073,0.51148 -0.468163,0.72944 -0.940226,1.13784 -0.716596,0.61993 -1.613946,0.92138 -2.54382,1.0202 -0.151639,-5.5e-4 -0.918493,0.0138 -1.097403,-0.0741 -0.41499,-0.20337 -0.41255,-0.78396 -0.474089,-1.16007 0.02447,-0.67564 -6.76e-4,-0.82057 0.153941,-1.49915 0.263321,-1.15565 0.803917,-2.22018 1.453017,-3.20362 0.169094,-0.22823 0.329099,-0.46352 0.507257,-0.68476 0.624383,-0.77538 1.375789,-1.44677 2.339358,-1.75199 0.312442,-0.0653 0.674776,-0.15897 0.992381,-0.07 1.657477,1.11142 3.229252,-1.2326 1.571773,-2.34402 z" />
    <path
       style="fill:#ffffff;fill-opacity:1;fill-rule:nonzero;stroke:none;stroke-width:0.264583"
       id="path2595"
       d="m 91.843392,241.60493 c -0.690968,0.17411 -1.377045,0.37622 -2.037496,0.64588 -0.208978,0.0854 -0.413102,0.18222 -0.619648,0.27333 -0.19899,0.10952 -0.40915,0.20079 -0.596989,0.32845 -0.811647,0.55178 -1.328695,1.2537 -1.224225,2.30406 0.07221,0.72604 0.455692,1.10066 0.858103,1.63487 0.650985,0.69892 1.369799,1.34212 1.905671,2.14012 0.337299,0.50229 0.341542,0.57741 0.573916,1.11589 0.04715,0.17325 0.10934,0.34311 0.141447,0.51979 0.103692,0.57051 0.0028,1.18777 -0.229605,1.71464 -0.05055,0.11464 -0.118376,0.22082 -0.177557,0.33125 -0.0653,0.0825 -0.12029,0.17443 -0.195937,0.24761 -0.360657,0.34892 -1.205396,0.37544 -1.660352,0.40616 -0.448791,0.0283 -0.895966,0.004 -1.341941,-0.0438 -1.986096,-0.1946 -2.261296,2.61416 -0.275194,2.80876 v 0 c 0.616068,0.0569 1.233089,0.0938 1.852045,0.0475 0.643855,-0.0603 0.993742,-0.0616 1.619742,-0.24701 0.831484,-0.24633 1.552406,-0.67774 2.113033,-1.34642 0.162723,-0.19408 0.282027,-0.42077 0.423036,-0.63116 0.291497,-0.623 0.401316,-0.77471 0.560446,-1.45494 0.276973,-1.18398 0.17614,-2.38333 -0.258131,-3.51629 -0.13338,-0.286 -0.249965,-0.58046 -0.400111,-0.85802 -0.623931,-1.15333 -1.536541,-2.1017 -2.461374,-3.01524 -0.05974,-0.0569 -0.09673,-0.17229 -0.179185,-0.17066 -0.0607,0.001 -0.02554,0.11942 -0.04937,0.17523 -0.05465,0.12782 -0.103025,0.26157 -0.185117,0.37379 -0.028,0.0383 -0.114298,0.10198 -0.130392,0.0569 -0.01875,-0.053 0.05807,-0.0997 0.103257,-0.13289 0.112776,-0.0831 0.242266,-0.14078 0.363418,-0.21113 0.702456,-0.3172 1.425566,-0.5817 2.177881,-0.75543 1.938642,-0.47343 1.269127,-3.21508 -0.669517,-2.74166 z" />
    <path
       style="fill:#ffffff;fill-opacity:1;fill-rule:nonzero;stroke:none;stroke-width:0.264583"
       id="path2599"
       d="m 97.845338,249.77446 c 0.637484,0.007 1.267254,-0.0822 1.894454,-0.18571 0.936158,-0.16409 1.874928,-0.30896 2.803468,-0.51326 0.3639,-0.0762 0.71834,-0.19257 1.08378,-0.26136 0.0934,-0.0128 0.18751,-0.0412 0.28273,-0.0318 0.001,-4.8e-4 0.002,0.001 0.002,0.002 0.0139,0.002 0.0281,0.002 0.0419,0.003 -0.0135,-2.4e-4 -0.0255,-0.002 -0.0393,-0.004 -0.0299,-0.004 -0.0592,-0.0105 -0.0888,-0.0158 -0.88739,-0.24359 0.40652,0.0285 1.7068,-1.04706 0.21264,-0.17587 -0.0801,-0.97934 -0.16611,-1.19914 -0.33535,-0.74711 -0.87321,-1.36559 -1.43887,-1.94625 -0.41471,-0.40561 -0.86062,-0.78368 -1.36099,-1.08042 -0.3122,-0.18511 -0.39217,-0.20873 -0.71479,-0.3498 -0.49739,-0.19825 -1.02221,-0.26473 -1.55099,-0.16504 -0.28719,0.0541 -0.479088,0.13463 -0.748438,0.23202 -0.58743,0.22892 -1.14943,0.5278 -1.6315,0.93803 -0.107352,0.0913 -0.206649,0.1917 -0.309987,0.28752 -0.573873,0.56501 -0.912737,1.24994 -1.186534,1.99459 -0.205908,0.62674 -0.385596,1.26746 -0.472408,1.92295 -0.02001,0.15113 -0.03031,0.30336 -0.04548,0.45505 -0.04778,0.83335 0.101896,1.66556 0.499159,2.40549 0.08888,0.16553 0.19792,0.31942 0.296859,0.47914 0.630189,0.8596 1.526259,1.43 2.509499,1.812 0.20019,0.0783 0.40677,0.13927 0.61015,0.2089 1.07579,0.33913 2.20163,0.35339 3.31755,0.33546 0.86538,-0.0129 1.7247,-0.10966 2.57041,-0.28997 0.43357,-0.0848 0.83243,-0.29135 1.264,-0.37968 1.94084,-0.4643 1.28419,-3.20908 -0.65664,-2.74478 v 0 c -0.4107,0.10358 -0.80802,0.24208 -1.21216,0.3678 -0.65996,0.15136 -1.33656,0.20737 -2.01268,0.2248 -0.79567,0.0138 -1.60296,0.0317 -2.37568,-0.19026 -0.59404,-0.1913 -1.21355,-0.40733 -1.64631,-0.87943 -0.2482,-0.3392 -0.37482,-0.66186 -0.35394,-1.08946 0.0456,-0.57293 0.17782,-1.13266 0.36126,-1.67709 0.11549,-0.32715 0.23809,-0.65346 0.47908,-0.91198 0.27764,-0.28218 0.60437,-0.48772 0.97788,-0.6236 0.054,-0.0214 0.10869,-0.0409 0.16241,-0.0633 0.0176,-0.008 0.0453,-0.009 0.0503,-0.0274 0.002,-0.006 -0.24836,-0.0885 0.007,-0.0216 0.44746,0.17149 0.81965,0.47214 1.15852,0.80668 0.31766,0.32044 0.63125,0.65258 0.84727,1.0529 0.0495,0.0746 -0.006,3.6e-4 -0.002,-0.11194 0.005,-0.15661 -0.0863,-0.37511 0.0396,-0.46842 1.41355,-1.04773 2.56462,-0.74719 1.6486,-1.00981 -0.1706,-0.0325 -0.34233,-0.0538 -0.51635,-0.055 -0.28317,6e-4 -0.56473,0.0257 -0.84232,0.0837 -0.38822,0.0768 -0.76854,0.18481 -1.15351,0.27583 -0.88017,0.19529 -1.77145,0.3271 -2.65871,0.48524 -0.50882,0.0857 -1.01849,0.15962 -1.536191,0.1493 -1.994217,0.0747 -1.888569,2.89493 0.105644,2.82024 z" />
    <path
       style="fill:#ffffff;fill-opacity:1;fill-rule:nonzero;stroke:none;stroke-width:0.264583"
       id="path2601"
       d="m 24.445604,238.52258 c -0.11955,0.64161 -0.196222,1.2871 -0.239814,1.93807 -0.03669,0.98825 0.03791,1.97637 0.109251,2.96144 0.08347,0.88293 0.139264,1.76745 0.176619,2.6534 0.02016,0.74253 0.09289,1.48196 0.128939,2.22359 0.02562,0.67707 0.0041,1.3545 -0.02313,2.03111 -0.01739,0.39443 -0.02286,0.78916 -0.05206,1.18296 -0.02867,0.31421 -0.06061,0.62793 -0.07712,0.94307 -0.0099,0.26918 -0.01896,0.53839 -0.03441,0.80731 -0.01741,0.26647 -0.046,0.532 -0.06366,0.79843 -0.02435,0.22553 0.0089,0.44895 0.03068,0.67257 0.01076,0.14084 0.02637,0.28124 0.0458,0.42114 0.1953,1.2023 0.458935,0.19226 2.768576,-0.50817 0.0075,0.0294 0.01503,0.059 0.02258,0.0885 -0.290216,-1.9744 -3.082429,-1.56397 -2.792222,0.41042 v 0 c 0.01448,0.0771 0.02901,0.15411 0.04351,0.23116 0.910339,-0.23671 1.817493,-0.48603 2.731027,-0.71011 0.01261,-0.003 0.007,0.0251 0.01027,0.0377 0.0018,0.007 0.01566,0.0467 0.01137,0.0563 -0.0014,0.003 -0.001,-0.007 -0.0019,-0.0105 -0.02063,-0.11367 -0.0202,-0.23033 -0.0358,-0.3446 -0.01999,-0.16385 -0.01621,-0.034 -0.01726,-0.16479 0.0161,-0.27295 0.05078,-0.54461 0.06482,-0.81775 0.0155,-0.27498 0.02614,-0.55019 0.03538,-0.82545 0.0139,-0.29413 0.05021,-0.58642 0.07323,-0.8799 0.03054,-0.42454 0.04052,-0.84977 0.05726,-1.27501 0.03044,-0.76068 0.05282,-1.52232 0.02197,-2.28343 -0.03676,-0.73491 -0.106264,-1.46778 -0.12802,-2.20353 -0.0387,-0.91427 -0.09531,-1.82723 -0.181502,-2.73838 -0.06224,-0.85724 -0.129063,-1.7168 -0.10763,-2.57688 0.03494,-0.58057 0.11515,-1.15369 0.218159,-1.72598 0.277568,-1.97622 -2.517219,-2.36876 -2.794795,-0.39255 z" />
    <path
       style="fill:#ffffff;fill-opacity:1;fill-rule:nonzero;stroke:none;stroke-width:0.264583"
       id="path2603"
       d="m 25.450231,238.23187 c 0.248603,-0.14431 0.523005,-0.22168 0.802522,-0.27826 0.334132,-0.0622 0.673803,-0.0509 1.011148,-0.0319 0.442516,0.0249 0.88019,0.0929 1.313841,0.18181 0.439035,0.0905 0.857955,0.25143 1.274989,0.41188 0.338063,0.12403 0.654315,0.29587 0.968943,0.46895 0.219811,0.12234 0.437092,0.25005 0.639132,0.40027 0.238525,0.19671 0.44359,0.42805 0.624679,0.67762 0.187806,0.28859 0.329178,0.60418 0.4286,0.93318 0.08073,0.30766 0.105883,0.6257 0.128537,0.94183 0.01707,0.30178 0.02944,0.60379 0.04366,0.90572 0.0099,0.25202 0.0027,0.50432 -0.01049,0.75606 -0.0016,0.0102 3.63e-4,0.0216 -0.0053,0.0299 -0.0058,0.009 0.0029,-0.0393 -0.0029,-0.0309 -0.01976,0.0285 -0.029,0.0722 -0.04381,0.10411 -0.05489,0.0968 -0.121248,0.18674 -0.184185,0.27834 -0.135603,0.19615 -0.267141,0.39506 -0.397076,0.595 -0.101056,0.15216 -0.197463,0.30797 -0.307256,0.45409 -0.10875,0.13572 -0.214717,0.27408 -0.333188,0.40156 -0.083,0.0858 -0.170827,0.16717 -0.263697,0.24219 -0.04755,0.0403 -0.121974,0.0804 -0.0177,0.0162 0.190561,-0.0978 -0.157808,0.0689 -0.181176,0.0809 -0.08041,0.0393 -0.153332,0.0913 -0.229341,0.13794 -0.0054,0.004 0.01097,-0.007 0.01635,-0.0115 -0.08568,0.0533 -0.170565,0.10777 -0.25712,0.15964 -0.08483,0.0492 -0.164945,0.10574 -0.245353,0.16179 0.122469,-0.0973 0.271436,-0.1383 0.416373,-0.18623 0.02125,-0.007 -0.04345,0.011 -0.06514,0.0164 -0.08612,0.0301 -0.173419,0.0574 -0.257304,0.0933 -0.169085,0.0681 -0.247103,0.14222 -0.391077,0.24801 -0.0095,0.007 0.01764,-0.0161 0.02714,-0.0234 0.08041,-0.0629 0.06562,-0.0508 0.149332,-0.10452 0.05186,-0.0582 0.131691,-0.0578 0.194282,-0.093 0.02291,-0.0128 -0.04942,0.0179 -0.07367,0.0279 -0.0539,0.0223 -0.06937,0.029 -0.10813,0.0457 -0.07817,0.0342 -0.153779,0.0737 -0.232724,0.10601 -0.03823,0.0125 -0.07896,0.0217 -0.122977,0.0312 -0.149627,0.0207 -0.298649,0.051 -0.446421,0.0836 -0.117143,0.0215 -0.233877,0.0452 -0.351345,0.0647 -0.116443,0.0187 -0.232264,0.0405 -0.348509,0.0602 -0.06399,0.0119 -0.105829,0.0187 -0.155985,0.0249 -0.06606,0.009 -0.1317,0.0211 -0.197854,0.0293 -0.08638,0.0169 -0.14021,0.0178 -0.211565,0.0233 -0.03065,0.003 -0.0613,0.006 -0.09197,0.009 -0.03179,0.004 -0.06331,0.01 -0.09521,0.0127 0.0119,-0.002 0.02394,-0.004 0.03591,-0.006 0.0021,-0.001 0.0087,-0.003 0.0063,-0.004 -0.02234,-0.002 -0.04491,-0.002 -0.06723,-0.002 -1.994761,-0.0584 -2.077281,2.76266 -0.08257,2.82101 v 0 c 0.173038,0.005 0.348009,0.0107 0.519527,-0.0178 0.110303,-0.011 0.221637,-0.0142 0.330816,-0.0352 0.07796,-0.0101 0.195323,-0.0292 0.20237,-0.0299 0.09264,-0.0115 0.185093,-0.0249 0.276824,-0.0427 0.116866,-0.0197 0.233329,-0.0415 0.350313,-0.0604 0.166487,-0.0284 0.332434,-0.0601 0.497969,-0.0936 0.15219,-0.0356 0.307426,-0.0544 0.460321,-0.0866 0.200007,-0.0469 0.39873,-0.10139 0.58836,-0.18153 0.08755,-0.0372 0.174585,-0.0756 0.259907,-0.11763 0.09387,-0.0409 0.187047,-0.0836 0.279297,-0.128 0.113327,-0.0706 0.102347,-0.0601 0.209252,-0.14228 0.0181,-0.0134 0.07005,-0.0557 0.05166,-0.043 -0.280587,0.1946 -0.03553,0.0519 -0.3411,0.21357 -0.0026,0.001 0.0057,-0.003 0.0082,-0.004 -0.03309,0.0139 -0.03884,0.0164 0.03935,-0.0171 0.0081,-0.004 -0.01636,0.008 -0.02511,0.0103 -0.137339,0.0481 -0.09534,0.0365 -0.155851,0.0528 -0.01408,0.003 -0.05612,0.0142 -0.04218,0.01 0.166371,-0.0453 0.324096,-0.0989 0.473967,-0.1873 0.03496,-0.0207 0.06849,-0.0437 0.102728,-0.0655 0.03903,-0.0273 0.04954,-0.0371 0.07869,-0.054 0.08393,-0.0503 0.167487,-0.10125 0.249284,-0.15495 0.02725,-0.0166 0.05462,-0.0331 0.08175,-0.0499 0.01021,-0.007 0.04239,-0.0239 0.03068,-0.0202 -0.01193,0.004 -0.02228,0.0123 -0.03346,0.0182 -0.0028,0.002 0.0065,-0.004 0.0093,-0.006 -0.02748,0.0134 -0.01675,0.01 -0.04132,0.0184 -0.0048,0.001 0.0083,-0.004 0.01316,-0.005 0.13073,-0.0541 0.04146,-0.0148 0.211248,-0.0946 0.172937,-0.0957 0.337834,-0.20355 0.490032,-0.33008 0.197754,-0.16344 0.387206,-0.33721 0.56154,-0.52564 0.181936,-0.20229 0.354661,-0.41261 0.519271,-0.62927 0.139188,-0.19082 0.27043,-0.38724 0.398303,-0.58585 0.11669,-0.1796 0.234816,-0.35828 0.356675,-0.53444 0.1693,-0.2465 0.337818,-0.49525 0.455192,-0.77185 0.141338,-0.3401 0.256354,-0.69224 0.273577,-1.06347 0.01734,-0.34414 0.02598,-0.68897 0.01106,-1.03339 -0.01538,-0.32629 -0.02839,-0.6527 -0.04805,-0.97876 -0.03986,-0.53747 -0.09804,-1.07607 -0.254662,-1.59416 -0.205023,-0.62626 -0.474266,-1.23022 -0.859602,-1.76861 -0.356748,-0.46777 -0.748448,-0.90996 -1.220817,-1.26538 -0.301069,-0.21709 -0.614955,-0.41498 -0.941261,-0.59222 -0.426684,-0.23432 -0.858706,-0.46048 -1.316087,-0.63011 -0.56396,-0.21641 -1.133191,-0.4242 -1.727115,-0.54352 -0.569185,-0.11417 -1.143342,-0.20291 -1.723761,-0.23392 -0.58984,-0.0301 -1.182611,-0.029 -1.763729,0.0929 -0.56424,0.12776 -1.117841,0.2998 -1.619222,0.59598 -1.724954,1.00349 -0.305802,3.44295 1.419153,2.43946 z" />
    <path
       style="fill:#ffffff;fill-opacity:1;fill-rule:nonzero;stroke:none;stroke-width:0.264583"
       id="path2609"
       d="m 28.020367,250.06968 c 0.147469,0.10244 0.359017,0.15944 0.463563,0.31394 0.174881,0.23959 0.323095,0.49696 0.472058,0.75301 0.241732,0.42924 0.490923,0.85397 0.753746,1.27064 0.275077,0.43712 0.591141,0.84533 0.926526,1.23729 0.306429,0.35839 0.641707,0.68968 0.983743,1.0136 0.255165,0.2399 0.510547,0.47953 0.771626,0.71301 0.214235,0.19255 0.439504,0.3722 0.660257,0.5571 0.06787,0.0582 0.134913,0.1172 0.200533,0.17785 0.01584,0.0146 0.06211,0.0599 0.04734,0.0442 -0.249154,-0.26493 0.03281,0.14386 -0.365982,-0.62979 0.0029,-0.21801 0.0058,-0.43601 0.0087,-0.65401 -0.644205,1.88878 2.026926,2.79983 2.671131,0.91105 v 0 c 0.02597,-0.28568 0.05194,-0.57136 0.07792,-0.85703 -0.101955,-0.2193 -0.187559,-0.44697 -0.305852,-0.6579 -0.101113,-0.18031 -0.378213,-0.34733 -0.522555,-0.49871 -0.197459,-0.16512 -0.398709,-0.32584 -0.59092,-0.49714 -0.241164,-0.2153 -0.476314,-0.4371 -0.712091,-0.65827 -0.271882,-0.25718 -0.540003,-0.51857 -0.783419,-0.80341 -0.247273,-0.2859 -0.478527,-0.58519 -0.68082,-0.90497 -0.24537,-0.3878 -0.475469,-0.78465 -0.701258,-1.18414 -0.276591,-0.47419 -0.555912,-0.95316 -0.93883,-1.35148 -0.34703,-0.32402 -0.709899,-0.58705 -1.135162,-0.79968 -1.771226,-0.91938 -3.071414,1.5855 -1.300196,2.50488 z" />
    <path
       style="fill:#ffffff;fill-opacity:1;fill-rule:nonzero;stroke:none;stroke-width:0.264583"
       id="path2619"
       d="m 29.454245,253.32767 c 0.186177,0.34197 0.435264,0.64119 0.703129,0.92129 0.0032,-0.017 0.27463,0.28159 0.202507,0.20195 -0.0537,-0.0722 0.01654,0.0384 0.03175,0.0646 0.05737,0.0984 0.118471,0.19423 0.183251,0.28796 0.0063,0.008 0.165378,0.21793 0.100166,0.12993 0.0639,0.0979 0.138839,0.18759 0.215104,0.27586 -0.07742,-0.0648 -0.102404,-0.17322 -0.163612,-0.24788 -0.0122,-0.0148 0.01629,0.035 0.02476,0.0525 0.03063,0.0633 0.03254,0.0655 0.06589,0.12904 0.0511,0.0913 0.06198,0.11122 0.0852,0.15498 0.08679,0.17032 0.196128,0.32687 0.31413,0.47673 0.07504,0.0939 0.156156,0.18258 0.240738,0.26788 0.07429,0.074 0.156419,0.13946 0.238785,0.20419 0.04293,0.0336 0.08587,0.067 0.128819,0.10051 0.02618,0.0204 0.05225,0.0408 0.0784,0.0613 0.02819,0.022 0.05646,0.0442 0.08467,0.0663 0.02362,0.0185 0.04725,0.037 0.07087,0.0555 0.02275,0.0178 0.0456,0.0357 0.06836,0.0535 0.02268,0.0177 0.04536,0.0355 0.06804,0.0532 0.01315,0.0102 0.0263,0.0206 0.03945,0.0308 0.03261,0.0255 0.0652,0.051 0.09778,0.0765 0.03441,0.0269 0.06875,0.0538 0.103154,0.0807 0.02748,0.0215 0.05489,0.043 0.08234,0.0645 0.01725,0.0135 0.03458,0.0271 0.05181,0.0405 0.746729,0.5844 0.0038,0.01 1.631141,-2.29888 -1.656939,-1.1122 -3.229842,1.23106 -1.572904,2.34327 v 0 c 1.689212,-2.26274 2.428598,-1.68192 1.681147,-2.26689 -0.01725,-0.0135 -0.03458,-0.0271 -0.05181,-0.0405 -0.02748,-0.0215 -0.05489,-0.043 -0.08233,-0.0644 -0.03442,-0.027 -0.06875,-0.0538 -0.103155,-0.0807 -0.03261,-0.0255 -0.06521,-0.0511 -0.09778,-0.0765 -0.01316,-0.0103 -0.0263,-0.0206 -0.03945,-0.0308 -0.02267,-0.0177 -0.04536,-0.0355 -0.06804,-0.0532 -0.02275,-0.0178 -0.0456,-0.0357 -0.06836,-0.0535 -0.02362,-0.0185 -0.04725,-0.037 -0.07079,-0.0554 -0.02844,-0.0223 -0.05678,-0.0444 -0.08515,-0.0666 -0.02701,-0.0211 -0.05412,-0.0423 -0.08118,-0.0635 -0.04068,-0.0317 -0.08141,-0.0635 -0.122064,-0.0952 -0.05807,-0.0455 -0.03177,-0.0256 0.008,0.014 0.0028,0.003 0.0055,0.006 0.0087,0.009 0.0087,0.01 -0.03841,-0.0349 -0.02714,-0.0282 -0.05358,-0.0664 0.0391,0.0702 -0.02056,-0.0242 -0.0016,-0.003 0.0033,0.007 0.0046,0.0102 -0.03395,-0.0652 -0.06854,-0.13003 -0.105419,-0.19358 -0.08559,-0.14427 -0.143573,-0.30746 -0.264338,-0.4301 -0.106213,-0.12434 0.02592,0.0378 -0.02914,-0.0306 -0.04705,-0.0674 -0.09396,-0.14169 -0.150325,-0.2024 -0.0028,-0.003 0.0047,0.007 0.0066,0.01 0.0066,0.0103 0.02572,0.0413 0.01931,0.031 -0.02018,-0.0325 -0.03599,-0.0679 -0.05955,-0.098 -0.07411,-0.12693 -0.149174,-0.25378 -0.238358,-0.3709 -0.124112,-0.15549 -0.25929,-0.30063 -0.405229,-0.436 -0.09213,-0.0926 -0.181701,-0.18912 -0.24931,-0.30169 -0.94917,-1.75543 -3.431729,-0.4131 -2.482567,1.34232 z" />
    <path
       style="fill:#ffffff;fill-opacity:1;fill-rule:nonzero;stroke:none;stroke-width:0.264583"
       id="path2621"
       d="m 32.398934,256.92237 c 0.0063,-0.005 0.213243,0.18336 0.101285,0.0828 1.359395,1.46099 3.425556,-0.46149 2.066153,-1.92248 v 0 c -0.129105,-0.13202 -0.262711,-0.25847 -0.410856,-0.36932 -1.561942,-1.24209 -3.318535,0.96683 -1.756562,2.20895 z" />
    <path
       style="fill:#ffffff;fill-opacity:1;fill-rule:nonzero;stroke:none;stroke-width:0.264583"
       id="path2623"
       d="m 24.271089,253.17085 c 0.04373,0.23264 0.08559,0.46574 0.13256,0.69776 0.02932,0.12942 0.06336,0.25767 0.09195,0.38726 -0.0056,0.0201 0.09314,0.38481 0.04832,0.21881 -0.05104,-0.18488 -0.03566,-0.32876 -0.02055,-0.50889 0.002,-0.0241 -0.0079,0.0476 -0.01197,0.0714 -0.02406,0.13181 -0.0254,0.26575 -0.02484,0.39917 2.05e-4,0.0143 0.0014,0.0582 0.0017,0.0437 3.35e-4,-0.0194 -9.41e-4,-0.0389 -0.0014,-0.0582 0.0029,-0.0491 0.0077,-0.098 0.009,-0.14703 6.06e-4,-0.0219 -0.0052,0.0438 -0.007,0.0657 -0.01022,0.1354 -0.0056,0.11899 -7.62e-4,0.28262 0.006,0.0832 0.02162,0.16412 0.03907,0.24542 0.002,0.009 0.008,0.0343 0.0062,0.0257 -0.0054,-0.0266 -0.0103,-0.0534 -0.01721,-0.0796 -0.0055,-0.0205 0.0084,0.0415 0.01261,0.0622 -0.0049,-0.009 -0.02737,-0.10263 -0.02448,-0.29544 -0.0053,-0.19576 0.0048,0.5138 -0.0037,0.0961 -0.0733,-0.0812 0.289216,-0.92698 0.08525,-0.45342 -0.01609,0.0374 -0.02833,0.0764 -0.04256,0.11459 -0.01478,0.0554 -0.02934,0.11082 -0.04443,0.16613 -0.01284,0.0469 0.01893,-0.096 0.03756,-0.14096 0.0456,-0.11036 0.102965,-0.21546 0.154408,-0.32321 -1.089615,1.67188 1.274791,3.21283 2.364405,1.54094 v 0 c 0.147123,-0.30432 0.145681,-0.24959 0.204684,-0.49234 0.01155,-0.0477 -0.02614,0.0946 -0.03926,0.14183 -0.05717,0.14915 -0.0083,0.0298 -0.09093,0.20414 -0.0045,0.0107 0.01081,-0.0203 0.01618,-0.0304 0.01283,-0.0245 0.02754,-0.0482 0.03745,-0.0741 0.122471,-0.31031 0.08743,-0.21865 0.137924,-0.57074 -0.007,-0.44513 -0.0055,0.26739 0.0011,-0.032 0.0049,-0.20634 -0.01167,-0.34257 -0.03678,-0.45425 0.0125,0.0642 0.01458,0.0739 -0.01213,-0.0547 -1.29e-4,-0.002 0.0285,0.181 0.02766,0.17884 7.27e-4,0.0464 0.0028,0.0929 0.0022,0.13945 -4.28e-4,0.0338 -0.0043,0.0619 -0.0082,0.0942 0.0058,-0.0889 0.02209,-0.17832 0.0125,-0.2668 -4.61e-4,0.0422 8.2e-5,0.0427 -0.01167,0.13044 0.03761,-0.22143 0.0475,-0.43932 -0.0042,-0.66327 -0.03074,-0.12087 -0.0065,-0.0119 -0.04121,-0.18762 -0.02556,-0.11467 -0.05238,-0.22908 -0.08242,-0.34263 -0.03972,-0.18913 -0.07068,-0.3801 -0.109329,-0.56945 -0.310108,-1.97137 -3.098048,-1.53281 -2.787939,0.43856 z" />
    <path
       style="fill:#ffffff;fill-opacity:1;fill-rule:nonzero;stroke:none;stroke-width:0.264583"
       id="path2625"
       d="m 112.32954,239.05469 c 0.83975,-0.99761 1.80304,-1.88215 2.74968,-2.77566 1.451,-1.37007 -0.48658,-3.42208 -1.93758,-2.05201 v 0 c -1.04142,0.98369 -2.09884,1.96006 -3.01567,3.06433 -1.24684,1.55815 0.95671,3.32148 2.20359,1.76331 z" />
    <path
       style="fill:#ffffff;fill-opacity:1;fill-rule:nonzero;stroke:none;stroke-width:0.264583"
       id="path2627"
       d="m 114.03298,248.14421 c 0.20603,0.0201 0.33522,0.0309 0.57716,0.0761 2.12765,0.39757 4.17435,1.13719 6.21648,1.83542 1.88845,0.64518 2.80086,-2.02549 0.91243,-2.67067 v 0 c -1.50302,-0.51311 -2.40815,-0.84139 -3.93232,-1.28502 -1.17357,-0.3416 -2.39801,-0.68585 -3.62635,-0.7666 -0.15022,-0.009 -0.30107,0.003 -0.45161,0.005 -1.98399,0.21511 -1.67977,3.02089 0.30422,2.80578 z" />
    <path
       style="fill:#ffffff;fill-opacity:1;fill-rule:nonzero;stroke:none;stroke-width:0.264583"
       id="path2629"
       d="m 112.57371,260.72681 c 0.95839,0.65293 1.91153,1.31532 2.80589,2.05534 0.3695,0.30542 0.72229,0.63051 1.08343,0.94578 1.5053,1.31018 3.35816,-0.81861 1.85288,-2.12879 v 0 c -0.40043,-0.34756 -0.792,-0.70559 -1.20121,-1.04276 -0.92478,-0.76223 -1.90626,-1.45017 -2.89662,-2.12316 -1.62184,-1.16279 -3.26627,1.13086 -1.64442,2.29364 z" />
    <path
       style="fill:#ffffff;fill-opacity:1;fill-rule:nonzero;stroke:none;stroke-width:0.264583"
       id="path2631"
       d="m 16.913633,237.09164 c -1.292471,-0.92049 -2.613552,-1.80338 -3.96498,-2.63525 -0.455925,-0.28065 -0.919793,-0.54815 -1.379696,-0.82221 -1.7146686,-1.02098 -3.1585546,1.40391 -1.443885,2.42489 v 0 c 0.436853,0.2599 0.877584,0.51341 1.310571,0.7797 1.297625,0.79805 2.566138,1.64511 3.807614,2.52768 1.608526,1.18115 3.278913,-1.09367 1.670376,-2.27481 z" />
    <path
       style="fill:#ffffff;fill-opacity:1;fill-rule:nonzero;stroke:none;stroke-width:0.264583"
       id="path2633"
       d="m 12.739694,248.03793 c -1.701953,0.62736 -3.4382746,1.15626 -5.1668516,1.70398 -1.902392,0.60281 -1.049881,3.2932 0.852502,2.69038 v 0 c 1.7893656,-0.56703 3.5868746,-1.11458 5.3472736,-1.76796 1.857151,-0.73039 0.824216,-3.35679 -1.032924,-2.6264 z" />
    <path
       style="fill:#ffffff;fill-opacity:1;fill-rule:nonzero;stroke:none;stroke-width:0.264583"
       id="path2635"
       d="m 15.236072,258.8446 c -1.608044,1.03869 -3.193177,2.1112 -4.766303,3.20184 -1.6399116,1.13717 -0.03172,3.45635 1.608194,2.31919 v 0 c 1.54855,-1.07404 3.109355,-2.1296 4.692416,-3.15231 1.674942,-1.08491 0.140635,-3.45364 -1.534307,-2.36872 z" />
  </g>
</svg>
