<?xml version="1.0" encoding="UTF-8" standalone="no"?>
<svg
   xmlns:dc="http://purl.org/dc/elements/1.1/"
   xmlns:cc="http://creativecommons.org/ns#"
   xmlns:rdf="http://www.w3.org/1999/02/22-rdf-syntax-ns#"
   xmlns:svg="http://www.w3.org/2000/svg"
   xmlns="http://www.w3.org/2000/svg"
   xmlns:sodipodi="http://sodipodi.sourceforge.net/DTD/sodipodi-0.dtd"
   xmlns:inkscape="http://www.inkscape.org/namespaces/inkscape"
   width="128mm"
   height="32mm"
   viewBox="0 0 128 32"
   version="1.1"
   id="svg8"
   sodipodi:docname="repeat.svg"
   inkscape:version="1.0 (1.0+r73+1)">
  <defs
     id="defs2" />
  <sodipodi:namedview
     id="base"
     pagecolor="#ffffff"
     bordercolor="#666666"
     borderopacity="1.0"
     inkscape:pageopacity="0.0"
     inkscape:pageshadow="2"
     inkscape:zoom="0.74293315"
     inkscape:cx="183.75785"
     inkscape:cy="387.4925"
     inkscape:document-units="mm"
     inkscape:current-layer="layer1"
     showgrid="false"
     inkscape:snap-page="true"
     inkscape:window-width="1920"
     inkscape:window-height="1016"
     inkscape:window-x="0"
     inkscape:window-y="27"
     inkscape:window-maximized="1"
     inkscape:document-rotation="0" />
  <metadata
     id="metadata5">
    <rdf:RDF>
      <cc:Work
         rdf:about="">
        <dc:format>image/svg+xml</dc:format>
        <dc:type
           rdf:resource="http://purl.org/dc/dcmitype/StillImage" />
        <dc:title></dc:title>
      </cc:Work>
    </rdf:RDF>
  </metadata>
  <g
     inkscape:label="Layer 1"
     inkscape:groupmode="layer"
     id="layer1"
     transform="translate(0,-233)">
    <rect
       style="fill:#3f51b5;fill-opacity:1;stroke-width:0.264583"
       id="rect3713"
       width="128"
       height="32"
       x="0"
       y="233" />
    <path
       style="fill:#ffffff;fill-opacity:1;fill-rule:nonzero;stroke:none;stroke-width:0.264583"
       id="path1218"
       d="m 24.85878,238.32989 c -0.252188,1.46886 -0.312372,2.96243 -0.380105,4.44851 -0.0813,2.72064 -0.154721,5.44153 -0.232004,8.16231 -0.06154,2.02267 -0.07939,4.04612 -0.07977,6.06959 0.0051,0.30978 0.0026,0.9064 0.04741,1.24188 0.02012,0.15062 -0.02898,0.35708 0.09423,0.44603 0.561404,0.4053 1.230116,0.63608 1.845174,0.95412 1.900043,-0.61017 1.037134,-3.29724 -0.862909,-2.68707 v 0 c 0.57995,0.32932 1.17402,0.63492 1.739851,0.98795 0.02735,0.0171 0.0021,0.12874 -0.0014,0.0967 -0.04257,-0.38717 -0.033,-0.61687 -0.04016,-1.03909 3.44e-4,-1.99694 0.01784,-3.99384 0.07864,-5.98998 0.07682,-2.70488 0.150154,-5.40985 0.230244,-8.11461 0.05989,-1.32812 0.114091,-2.66071 0.31849,-3.97637 0.424246,-1.94999 -2.333464,-2.54997 -2.75771,-0.59997 z" />
    <path
       style="fill:#ffffff;fill-opacity:1;fill-rule:nonzero;stroke:none;stroke-width:0.264583"
       id="path1220"
       d="m 26.962921,240.95766 c 0.67751,-0.28234 1.436639,-0.36366 2.165839,-0.32051 0.238511,0.0141 0.474603,0.0557 0.711905,0.0835 0.863401,0.1773 1.723458,0.49366 2.331887,1.16196 0.270625,0.29726 0.291611,0.41121 0.446703,0.75709 0.04364,0.21729 0.101534,0.39919 0.06798,0.62323 -0.04927,0.32896 -0.507591,0.84211 -0.712881,1.07644 -0.419415,0.4279 -0.880578,0.82056 -1.402561,1.11867 -0.316062,0.18051 -0.410924,0.20686 -0.75083,0.34761 -0.62508,0.19819 -1.320125,0.48468 -1.988492,0.44654 -0.496344,-0.0477 -1.012353,-0.16516 -1.509926,-0.0568 -0.167701,0.0365 -0.326807,0.10502 -0.49021,0.15753 -1.820287,0.81793 -0.663547,3.39221 1.15674,2.57427 v 0 c -0.09415,0.0214 -0.187123,0.0489 -0.282464,0.0642 -0.01435,0.002 -0.05626,-0.0108 -0.04181,-0.0123 0.388881,-0.0411 0.779763,0.12058 1.168955,0.0953 0.155168,-0.003 0.310674,0.002 0.465504,-0.009 0.906349,-0.0625 1.78406,-0.3614 2.63195,-0.66515 0.202404,-0.0884 0.408604,-0.16861 0.607211,-0.26526 0.995317,-0.48433 1.861737,-1.19058 2.611843,-1.99836 0.411471,-0.51422 0.654702,-0.75676 0.93796,-1.36579 0.39124,-0.84121 0.512862,-1.68853 0.305212,-2.59752 -0.0667,-0.29201 -0.186527,-0.56928 -0.279791,-0.85391 -0.42694,-0.75502 -0.481396,-0.97296 -1.123736,-1.59607 -0.780659,-0.75728 -1.763404,-1.2688 -2.800068,-1.57502 -0.346605,-0.10238 -0.705645,-0.15663 -1.058469,-0.23495 -0.347607,-0.0327 -0.693925,-0.085 -1.042822,-0.0982 -1.157583,-0.0437 -2.340861,0.13866 -3.397054,0.62284 -1.781628,0.89904 -0.510197,3.41864 1.271432,2.51961 z" />
    <path
       style="fill:#ffffff;fill-opacity:1;fill-rule:nonzero;stroke:none;stroke-width:0.264583"
       id="path1222"
       d="m 25.620821,248.15334 c 0.730219,0.52528 1.453742,1.06047 2.135787,1.64795 0.249446,0.21486 0.491101,0.43861 0.736651,0.65791 1.222411,1.15139 2.321504,2.42314 3.469204,3.64668 0.817233,0.87123 0.916959,0.96268 1.729808,1.78731 0.520539,0.5198 1.052216,1.02811 1.575383,1.54521 1.419486,1.40268 3.403183,-0.60477 1.983696,-2.00746 v 0 c -0.514612,-0.5084 -1.036956,-1.0088 -1.549516,-1.51931 -0.778331,-0.78903 -0.882881,-0.88562 -1.667233,-1.72178 -1.20982,-1.28974 -2.36855,-2.63042 -3.663628,-3.83758 -0.272991,-0.24282 -0.541711,-0.49054 -0.818973,-0.72848 -0.718101,-0.61625 -1.476775,-1.18163 -2.244792,-1.73342 -1.600163,-1.19246 -3.286549,1.07051 -1.686387,2.26297 z" />
    <path
       style="fill:#ffffff;fill-opacity:1;fill-rule:nonzero;stroke:none;stroke-width:0.264583"
       id="path1224"
       d="m 38.829932,240.61318 c 0.206243,1.33118 0.274147,2.67981 0.36007,4.02267 0.199722,3.13953 0.284577,6.28428 0.33539,9.42921 0.0162,1.35297 0.03288,2.70606 0.0298,4.05916 -0.0076,0.94256 -0.11162,-0.35125 2.493939,1.03065 0.227196,0.1205 -0.806341,0.41507 -0.0055,0.1744 1.798844,-0.51939 3.656075,-0.78807 5.505535,-1.05306 1.04984,-0.15005 2.108517,-0.2582 3.140757,-0.51118 0.230719,-0.0565 0.456189,-0.13269 0.684284,-0.19904 1.912625,-0.56949 1.107234,-3.27436 -0.805394,-2.70486 v 0 c -0.155168,0.0478 -0.308057,0.1037 -0.465503,0.14332 -0.969671,0.24404 -1.968577,0.33077 -2.95493,0.47814 -1.996364,0.28675 -4.000254,0.58244 -5.939935,1.15087 -0.212469,0.0671 -0.612089,0.17958 -0.806601,0.29551 -0.161936,0.0965 -0.607094,0.23249 -0.452096,0.3398 2.431479,1.68336 2.418182,1.85586 2.427697,0.86177 0.003,-1.37042 -0.01359,-2.74083 -0.03016,-4.11113 -0.05167,-3.18991 -0.138098,-6.37961 -0.340797,-9.56403 -0.06006,-0.93595 -0.08789,-1.45686 -0.165791,-2.36664 -0.05807,-0.67817 -0.11575,-1.36672 -0.248895,-2.0357 -0.02094,-0.10519 -0.05188,-0.20815 -0.07782,-0.31223 -0.616858,-1.89788 -3.300868,-1.02551 -2.68401,0.87237 z" />
    <path
       style="fill:#ffffff;fill-opacity:1;fill-rule:nonzero;stroke:none;stroke-width:0.264583"
       id="path1226"
       d="m 42.411598,250.42211 c 1.763292,-0.4761 3.575763,-0.72491 5.387747,-0.92478 1.186254,-0.10438 0.629169,-0.0602 1.670997,-0.13593 1.990326,-0.14517 1.785017,-2.95992 -0.205309,-2.81474 v 0 c -1.105828,0.0809 -0.513511,0.0336 -1.776658,0.14564 -1.994166,0.22211 -3.98996,0.49908 -5.926837,1.03865 -1.902937,0.60108 -1.052877,3.29224 0.85006,2.69116 z" />
    <path
       style="fill:#ffffff;fill-opacity:1;fill-rule:nonzero;stroke:none;stroke-width:0.264583"
       id="path1228"
       d="m 40.167629,242.35883 c -0.03649,0.0731 -0.100752,0.13804 -0.109479,0.21927 -0.0032,0.0298 0.0597,-0.009 0.08797,-0.019 0.123211,-0.0438 0.242142,-0.0992 0.365611,-0.14226 0.93321,-0.32565 1.80983,-0.50479 2.777688,-0.70383 1.027038,-0.16027 1.450598,-0.24917 2.480726,-0.32146 0.349297,-0.0245 0.699931,-0.0231 1.049895,-0.0346 1.994318,-0.0719 1.892689,-2.89226 -0.101629,-2.8204 v 0 c -0.413226,0.016 -0.827258,0.0175 -1.239678,0.0479 -1.151065,0.0847 -1.617654,0.18365 -2.762324,0.36516 -1.131279,0.2363 -2.272086,0.45546 -3.349941,0.88787 -0.441944,0.1773 -0.965752,0.42097 -1.319836,0.76113 -0.164302,0.15784 -0.281645,0.3582 -0.422467,0.53731 -0.864786,1.7985 1.678682,3.02149 2.543467,1.22299 z" />
    <path
       style="fill:#ffffff;fill-opacity:1;fill-rule:nonzero;stroke:none;stroke-width:0.264583"
       id="path1236"
       d="m 55.529517,240.28734 c -0.03137,0.10735 -0.06689,0.21357 -0.09411,0.32204 -0.09677,0.38566 -0.158906,0.75439 -0.217146,1.15093 -0.15703,1.06914 -0.240361,2.14317 -0.32299,3.21998 -0.168603,2.65244 -0.217874,5.31063 -0.242515,7.96771 -0.0049,1.17622 0.0064,2.35282 0.05563,3.5281 0.08353,1.99387 2.903283,1.87573 2.819749,-0.11813 v 0 c -0.04723,-1.12724 -0.05789,-2.25575 -0.05328,-3.38389 0.02389,-2.59407 0.07156,-5.18919 0.234436,-7.77882 0.1,-1.31535 0.185452,-2.64159 0.468787,-3.9332 0.689226,-1.87282 -1.959335,-2.84753 -2.648561,-0.97472 z" />
    <path
       style="fill:#ffffff;fill-opacity:1;fill-rule:nonzero;stroke:none;stroke-width:0.264583"
       id="path1238"
       d="m 57.805461,242.00826 c -0.04724,0.0486 -0.125572,0.0799 -0.141709,0.14565 -0.0094,0.0382 0.07578,-0.0213 0.113755,-0.0317 0.107326,-0.0293 0.213778,-0.062 0.322144,-0.0872 0.365593,-0.0848 0.667451,-0.14343 1.046318,-0.16151 0.191799,-0.009 0.384009,0.004 0.576014,0.007 1.010581,0.15041 1.941423,0.63034 2.650781,1.36916 0.123912,0.12906 0.227984,0.2758 0.341974,0.4137 0.120618,0.22908 0.263329,0.43752 0.289452,0.70357 0.01484,0.15116 -0.148945,0.5556 -0.23104,0.67794 -0.03986,0.0594 -0.0963,0.10583 -0.144452,0.15874 -0.822809,0.51596 -1.810194,0.63631 -2.75473,0.74662 -0.525672,0.0335 -1.050473,0.068 -1.574729,0.11878 -1.985957,0.19607 -1.708682,3.00464 0.277276,2.80857 v 0 c 0.544748,-0.055 1.09102,-0.0809 1.636752,-0.1256 0.268054,-0.0334 0.537395,-0.0576 0.804158,-0.1001 1.166112,-0.18561 2.405709,-0.50105 3.341855,-1.26371 0.233013,-0.18983 0.421933,-0.42813 0.632901,-0.6422 0.371219,-0.62357 0.526542,-0.76957 0.68397,-1.48802 0.20515,-0.93626 0.09404,-1.81403 -0.34121,-2.66741 -0.139179,-0.27289 -0.3263,-0.51854 -0.48945,-0.77782 -0.560348,-0.62692 -0.66553,-0.8064 -1.354807,-1.3193 -0.823121,-0.61249 -1.769753,-1.0703 -2.773868,-1.29276 -0.331218,-0.0734 -0.67183,-0.0949 -1.007742,-0.14235 -0.299558,0.004 -0.599781,-0.007 -0.898673,0.0134 -0.496163,0.0339 -1.030576,0.13126 -1.512917,0.25789 -0.312594,0.0821 -0.788371,0.23002 -1.079277,0.40081 -0.163513,0.096 -0.306375,0.22347 -0.459563,0.3352 -1.37395,1.44732 0.672867,3.39038 2.046817,1.94306 z" />
    <path
       style="fill:#ffffff;fill-opacity:1;fill-rule:nonzero;stroke:none;stroke-width:0.264583"
       id="path1240"
       d="m 68.239939,242.31232 c 0.241364,1.57412 0.248724,3.17647 0.272002,4.76555 0.01924,2.59796 -0.254677,5.18342 -0.510563,7.76488 -0.06691,0.77334 -0.159465,1.5451 -0.203941,2.32034 -0.01693,0.29533 -0.0375,0.69295 0.01786,0.98773 0.03527,0.18782 0.105976,0.36722 0.158967,0.55083 0.2222,0.24952 0.376552,0.5827 0.666597,0.74855 0.756293,0.43247 1.437814,0.13461 2.149337,-0.12073 0.763897,-0.27414 0.465587,-0.17018 1.297612,-0.43784 1.574779,-0.49695 3.22726,-0.56343 4.861306,-0.67091 0.175715,-0.0149 0.351433,-0.0297 0.527148,-0.0446 1.988444,-0.16901 1.749427,-2.98109 -0.239017,-2.81208 v 0 c -0.157792,0.0135 -0.315587,0.027 -0.473379,0.0405 -1.865683,0.12274 -3.748133,0.22363 -5.54265,0.80117 -0.836629,0.27065 -0.649129,0.2015 -1.400424,0.47321 -0.123566,0.0447 -0.25309,0.0763 -0.369634,0.13699 -0.01728,0.009 0.03232,0.0225 0.05061,0.0292 0.914222,0.33286 0.513294,0.0209 1.102098,0.8318 0.0066,0.0645 0.02283,0.12866 0.01966,0.19337 -0.0019,0.0377 -0.02283,-0.073 -0.02371,-0.11073 -0.003,-0.12937 0.0048,-0.25884 0.01212,-0.38804 0.04259,-0.75191 0.133541,-1.50032 0.197885,-2.25037 0.266425,-2.68792 0.547325,-5.38026 0.524012,-8.08535 -0.027,-1.78109 -0.03552,-3.57961 -0.339751,-5.33955 -0.435636,-1.94749 -3.189795,-1.3314 -2.754159,0.61608 z" />
    <path
       style="fill:#ffffff;fill-opacity:1;fill-rule:nonzero;stroke:none;stroke-width:0.264583"
       id="path1242"
       d="m 71.580166,248.51485 c -1.314352,0.0436 -0.914834,0.0266 -0.06197,2.82918 0.03924,0.12893 0.268772,-0.0204 0.403157,-0.0306 1.652936,-0.13987 3.310554,-0.2099 4.965805,-0.31542 0.921888,-0.0797 0.488466,-0.0316 1.301004,-0.13743 1.978258,-0.26261 1.606868,-3.06029 -0.37139,-2.79768 v 0 c -0.664043,0.0903 -0.294669,0.0473 -1.1093,0.11861 -1.667478,0.10646 -3.33737,0.17677 -5.002506,0.31801 -0.112295,0.009 -0.325234,-0.0857 -0.336884,0.0263 -0.316505,3.0437 -0.804518,2.84368 0.285682,2.81031 1.994932,-0.052 1.921338,-2.8733 -0.0736,-2.82126 z" />
    <path
       style="fill:#ffffff;fill-opacity:1;fill-rule:nonzero;stroke:none;stroke-width:0.264583"
       id="path1244"
       d="m 69.812644,243.68229 c 1.715643,-0.26649 3.456035,-0.3417 5.187661,-0.43838 1.546876,-0.051 0.810101,-0.0436 2.210213,-0.0314 1.995556,0.015 2.016718,-2.80718 0.02117,-2.82214 v 0 c -1.536343,-0.01 -0.740016,-0.0196 -2.388884,0.0357 -1.871069,0.10471 -3.752908,0.18537 -5.604049,0.49294 -1.953919,0.40581 -1.380022,3.16906 0.573897,2.76326 z" />
    <path
       style="fill:#ffffff;fill-opacity:1;fill-rule:nonzero;stroke:none;stroke-width:0.264583"
       id="path1286"
       d="m 84.129659,257.90884 c 0.649467,-1.24075 1.16029,-2.55056 1.577194,-3.88653 0.139801,-0.44798 0.261237,-0.90149 0.391856,-1.35224 0.61237,-2.23898 1.030944,-4.52397 1.355347,-6.8205 -0.355749,0.73057 0.246216,-0.96058 0.129357,-0.73936 -0.40096,0.75907 0.614926,0.4765 -1.449414,0.9655 -0.179771,0.0426 -0.341474,-0.23784 -0.520224,-0.19116 -0.106135,0.0277 0.111655,0.18884 0.167482,0.28326 1.281197,2.20349 2.400524,4.49541 3.461469,6.81133 0.47887,1.06161 0.941475,2.13164 1.492076,3.15893 0.257672,0.48075 0.422648,0.74069 0.693607,1.18597 1.039194,1.70369 3.448569,0.23404 2.409376,-1.46964 v 0 c -0.220697,-0.36082 -0.384588,-0.61974 -0.591201,-1.00315 -0.533443,-0.98988 -0.974135,-2.02492 -1.438281,-3.04801 -1.124055,-2.45129 -2.307584,-4.88004 -3.680441,-7.20335 -0.295005,-0.42004 -0.776036,-1.2638 -1.388528,-1.28072 -1.750711,-0.0483 -1.90776,0.90803 -2.079837,2.13621 -0.304972,2.16534 -0.697801,4.31999 -1.27223,6.43172 -0.118475,0.41188 -0.228629,0.82625 -0.355431,1.23564 -0.370014,1.19466 -0.821404,2.36752 -1.402077,3.47635 -0.926129,1.7677 1.573771,3.07744 2.4999,1.30975 z" />
    <path
       style="fill:#ffffff;fill-opacity:1;fill-rule:nonzero;stroke:none;stroke-width:0.264583"
       id="path1288"
       d="m 85.997114,253.51259 c 1.132954,-0.19323 2.280785,-0.28851 3.429072,-0.31243 1.995074,-0.0463 1.929579,-2.86778 -0.06549,-2.82147 v 0 c -1.311815,0.0331 -2.623836,0.1361 -3.917048,0.36648 -1.956861,0.39136 -1.403387,3.15878 0.553471,2.76742 z" />
    <path
       style="fill:#ffffff;fill-opacity:1;fill-rule:nonzero;stroke:none;stroke-width:0.264583"
       id="path1290"
       d="m 99.929392,243.65332 c 0.0372,2.22431 0.116858,4.44733 0.203008,6.67022 0.0678,1.28939 0.0686,2.58233 0.15143,3.87106 0.0256,0.39866 0.0771,1.10905 0.19637,1.52121 0.0591,0.20437 0.16039,0.39411 0.24059,0.59116 0.36023,0.25401 0.72046,0.50801 1.08069,0.76202 1.95659,0.39268 2.51192,-2.37437 0.55532,-2.76705 v 0 c 0.29243,0.2404 0.58487,0.4808 0.8773,0.7212 0.005,0.0504 0.0303,0.19996 0.0159,0.15132 -0.1039,-0.35198 -0.12405,-0.75404 -0.14693,-1.10919 -0.0359,-0.55673 -0.0772,-1.87399 -0.0955,-2.37738 -0.0179,-0.49124 -0.0367,-0.98243 -0.0551,-1.47365 -0.0869,-2.24157 -0.16438,-4.48328 -0.20573,-6.72617 -0.11684,-1.99219 -2.93422,-1.82694 -2.817378,0.16525 z" />
    <path
       style="fill:#ffffff;fill-opacity:1;fill-rule:nonzero;stroke:none;stroke-width:0.264583"
       id="path1292"
       d="m 96.112132,245.36881 c -0.06636,0.0796 -0.161054,0.14241 -0.199072,0.23882 -0.01323,0.0335 0.07265,1.3e-4 0.107873,-0.008 0.166169,-0.0362 0.328443,-0.0892 0.494961,-0.12371 1.174391,-0.24366 2.361134,-0.36078 3.552846,-0.48131 2.4649,-0.17789 4.95703,-0.2211 7.41199,0.10906 0.27334,0.0368 0.54411,0.0906 0.81617,0.13586 1.96931,0.32295 2.42602,-2.46208 0.45672,-2.78503 v 0 c -0.32148,-0.052 -0.64157,-0.11363 -0.96445,-0.15614 -2.65275,-0.34933 -5.34383,-0.30992 -8.006558,-0.11143 -1.248968,0.12817 -1.697225,0.15317 -2.898301,0.35173 -0.715232,0.11824 -1.896899,0.31369 -2.535791,0.71965 -0.19436,0.12349 -0.347482,0.30226 -0.521223,0.4534 -1.171425,1.61562 1.113411,3.27226 2.284835,1.65664 z" />
  </g>
</svg>
